HW 2
…
Rwanda
Africa
1992
23.599
7290203
737.0686
-5.202

gapminder %>% 
  arrange(year) %>% 
  group_by(country) %>%
  mutate(gdpPercap_inc = gdpPercap - lag(gdpPercap)) %>% 
  filter(gdpPercap_inc < 0)

## # A tibble: 332 x 7
## # Groups:   country [115]
##    country          continent  year lifeExp     pop gdpPercap gdpPercap_inc
##    <fct>            <fct>     <int>   <dbl>   <int>     <dbl>         <dbl>
##  1 Bangladesh       Asia       1957    39.3  5.14e7      662.         -22.6
##  2 Benin            Africa     1957    40.4  1.93e6      960.        -103. 
##  3 Bolivia          Americas   1957    41.9  3.21e6     2128.        -550. 
##  4 Haiti            Americas   1957    40.7  3.51e6     1727.        -113. 
##  5 Malaysia         Asia       1957    52.1  7.74e6     1810.         -21.1
##  6 Morocco          Africa     1957    45.4  1.14e7     1642.         -46.2
##  7 Sao Tome and Pr Africa     1957    48.9  6.13e4      861.         -18.8
##  8 Sri Lanka        Asia       1957    61.5  9.13e6     1073.         -11.0
##  9 Tanzania         Africa     1957    43.0  9.45e6      699.         -18.1
## 10 Tunisia          Africa     1957    47.1  3.95e6     1395.         -73.2
## #  with 322 more rows
…
