HW 05
…
Exercise 1: Explain the value of the here::here package

The here::here package is useful for multiple reasons. Often people have different operating systems on their computers which can cause problems when setting file paths. For example, Windows uses a backslash ( ) where MacOS uses a forwardslash (/). For example, my current working directory is: Users/Eve/courses/STAT_545/STAT545-participation but this wouldnt be the same on a Windows computer.

Here::here is also useful because it makes it easier to use subdirectories. Once can set the subdirectory to run code from without being in that directory.

#Exercise 2: Factor management Task: Choose one dataset (of your choice) and a variable to explore. After ensuring the variable(s) youre exploring are indeed factors, you should:

Drop Oceania

First print the gapminder dataset to see which columns are factors:

gapminder

## # A tibble: 1,704 x 6
##    country     continent  year lifeExp      pop gdpPercap
##    <fct>       <fct>     <int>   <dbl>    <int>     <dbl>
##  1 Afghanistan Asia       1952    28.8  8425333      779.
##  2 Afghanistan Asia       1957    30.3  9240934      821.
##  3 Afghanistan Asia       1962    32.0 10267083      853.
##  4 Afghanistan Asia       1967    34.0 11537966      836.
##  5 Afghanistan Asia       1972    36.1 13079460      740.
##  6 Afghanistan Asia       1977    38.4 14880372      786.
##  7 Afghanistan Asia       1982    39.9 12881816      978.
##  8 Afghanistan Asia       1987    40.8 13867957      852.
##  9 Afghanistan Asia       1992    41.7 16317921      649.
## 10 Afghanistan Asia       1997    41.8 22227415      635.
## #  with 1,694 more rows
…
## [1] 5

So we see we have 5 continent factors. We can also check how many rows are in our initial gapminder dataset, and we see we have 1704 rows.

nrow(gapminder)

## [1] 1704

Then we can create a new dataset (gconts_dropped) with all continents except Oceania. And then use droplevels() to make sure the unused levels are dropped.

(gconts_dropped <- gapminder %>% 
  filter(continent == c("Asia", "Europe", "Americas", "Africa")) %>% # choose only certain factors (all except Oceania)
  droplevels()) # drop the unused factors

## # A tibble: 420 x 6
##    country     continent  year lifeExp      pop gdpPercap
##    <fct>       <fct>     <int>   <dbl>    <int>     <dbl>
##  1 Afghanistan Asia       1952    28.8  8425333      779.
##  2 Afghanistan Asia       1972    36.1 13079460      740.
##  3 Afghanistan Asia       1992    41.7 16317921      649.
##  4 Albania     Europe     1957    59.3  1476505     1942.
##  5 Albania     Europe     1977    68.9  2509048     3533.
##  6 Albania     Europe     1997    73.0  3428038     3193.
##  7 Algeria     Africa     1967    51.4 12760499     3247.
##  8 Algeria     Africa     1987    65.8 23254956     5681.
##  9 Algeria     Africa     2007    72.3 33333216     6223.
## 10 Angola      Africa     1967    36.0  5247469     5523.
## #  with 410 more rows
…
If we check the number of rows in our new dataset we see we have 420 rows. This means that we lost 1284 rows that belonged to data for Oceania.

nrow(gconts_dropped)

## [1] 420

Reorder levels

First well continue with our dataset without Oceania. Well create a summary statistic for the maximum GDP per capita for each country.

(max <- gconts_dropped %>% 
  group_by(continent, country) %>% 
  summarize(max_gdp = max(gdpPercap)))

## # A tibble: 140 x 3
## # Groups:   continent [4]
##    continent country                  max_gdp
##    <fct>     <fct>                      <dbl>
##  1 Africa    Algeria                    6223.
##  2 Africa    Angola                     5523.
##  3 Africa    Benin                      1441.
##  4 Africa    Botswana                  12570.
##  5 Africa    Burkina Faso               1217.
##  6 Africa    Burundi                     622.
##  7 Africa    Cameroon                   2603.
##  8 Africa    Central African Republic   1136.
##  9 Africa    Chad                       1704.
## 10 Africa    Comoros                    1876.
## #  with 130 more rows

Well then look at the number of country levels we have and their current order.

max$country %>% 
  nlevels()

## [1] 140

Because its a lot of countries well choose only data for the Americas. So well drop all the other country levels. And then well only have 25 countries to work with.

(g_americas <- max %>% 
  filter(continent == "Americas") %>% # choose only certain factors (all except Oceania)
  droplevels())

## # A tibble: 25 x 3
## # Groups:   continent [1]
##    continent country            max_gdp
##    <fct>     <fct>                <dbl>
##  1 Americas  Argentina            8998.
##  2 Americas  Bolivia              3413.
##  3 Americas  Brazil               8131.
##  4 Americas  Canada              33329.
##  5 Americas  Chile               10779.
##  6 Americas  Colombia             5755.
##  7 Americas  Costa Rica           7723.
##  8 Americas  Cuba                 7317.
##  9 Americas  Dominican Republic   4564.
## 10 Americas  Ecuador              7214.
## #  with 15 more rows
…
write_csv()/read_csv() (and/or TSV friends), saveRDS()/readRDS(), dput()/dget(). You are expected to create something new, probably by filtering or grouped-summarization of your dataset (for e.g., Singer, Gapminder, or another dataset), export it to disk and then reload it back in using one of the packages above. You should use here::here() for reading in and writing out.

With the imported data, play around with factor levels and use factors to order your data with one of your factors (i.e.non-alphabetically). For the I/O method(s) you chose, comment on whether or not your newly created file survived the round trip of writing to file then reading back in.

Set the filename and the path using here::here.

filename <- "daily_alldata.csv"
path <- here::here("hw05","data", filename)

Read in the CSV file:

(weather <- read_csv(path, skip=25))

## # A tibble: 6,939 x 27
##    Date   Year Month   Day `Data Quality` `Max Temp (deg  `Max Temp Flag`
##    <chr> <dbl> <dbl> <dbl> <lgl>                     <dbl> <chr>          
##  1 01/0  2001     1     1 NA                         10.4 <NA>           
##  2 01/0  2001     1     2 NA                          9.9 <NA>           
##  3 01/0  2001     1     3 NA                         12.2 <NA>           
##  4 01/0  2001     1     4 NA                         10.6 <NA>           
##  5 01/0  2001     1     5 NA                         12.7 <NA>           
##  6 01/0  2001     1     6 NA                          8.9 <NA>           
##  7 01/0  2001     1     7 NA                          7.3 <NA>           
##  8 01/0  2001     1     8 NA                         10.6 <NA>           
##  9 01/0  2001     1     9 NA                         10.4 <NA>           
## 10 01/0  2001     1    10 NA                         10.9 <NA>           
## #  with 6,929 more rows, and 20 more variables: `Min Temp (Deg C)` <dbl>,
## #   `Min Temp Flag` <chr>, `Mean Temp (Deg C)` <dbl>, `Mean Temp
## #   Flag` <chr>, `Heat Deg Days (C)` <dbl>, `Heat Deg Days Flag` <chr>,
## #   `Cool Deg Days (C)` <dbl>, `Cool Deg Days Flag` <chr>, `Total Rain
## #   (mm)` <lgl>, `Total Rain Flag` <lgl>, `Total Snow (cm)` <lgl>, `Total
## #   Snow Flag` <lgl>, `Total Precip (mm)` <dbl>, `Total Precip
## #   Flag` <chr>, `Snow on Grnd (cm)` <lgl>, `Snow on Grnd Flag` <lgl>,
## #   `Dir of Max Gust (10s deg)` <lgl>, `Dir of Max Gust Flag` <lgl>, `Spd
## #   of Max Gust (km/h)` <lgl>, `Spd of Max Gust Flag` <lgl>
We can convert the values in Date to actual dates using lubridate.

weather$Date <- with(weather, lubridate::ymd(Date))

The data is weather data for Vancouver harbour from 2001 to 2019. I now want to drop the coloumns that are all NAs and

We can now use group by() and summarize() to refine our dataset and calculate the mean monthly temperature and precipitation for Vancouver Harbour.

(weather_mod <- weather %>% 
  group_by(Year, Month) %>% 
  summarize(meanMax = mean(`Max Temp (deg C)`, na.rm = TRUE),
            meanMin = mean(`Min Temp (Deg C)`, na.rm = TRUE),
            meanPcp = mean(`Total Precip (mm)`, na.rm = TRUE)))

## # A tibble: 228 x 5
## # Groups:   Year [19]
##     Year Month meanMax meanMin meanPcp
##    <dbl> <dbl>   <dbl>   <dbl>   <dbl>
##  1  2001     1    9.11    4.23    5.66
##  2  2001     2    8.96    2.80    1.3 
##  3  2001     3   11.5     5.06    5.26
##  4  2001     4   14.8     7.25    5.11
##  5  2001     5   16.7     9.47    2.81
##  6  2001     6   18.8    11.8     3.43
##  7  2001     7   21.3    14.2     0.9 
##  8  2001     8   21.5    14.6     3.68
##  9  2001     9   18.6    12.2     2.03
## 10  2001    10   12.9     7.78    6.90
## #  with 218 more rows
…
                   Month == 2 ~ "February",
                   Month == 3 ~ "March",
                   Month == 4 ~ "April",
                   Month == 5 ~ "May",
                   Month == 6 ~ "June",
                   Month == 7 ~ "July",
                   Month == 8 ~ "August",
                   Month == 9 ~ "September",
                   Month == 10 ~ "October",
                   Month == 11 ~ "November",
                   Month == 12 ~ "December"),
         levels = c("January","February","March","April","May","June",
                    "July","August","September","October","November","December"))))

## # A tibble: 228 x 5
## # Groups:   Year [19]
##     Year Month     meanMax meanMin meanPcp
##    <dbl> <fct>       <dbl>   <dbl>   <dbl>
##  1  2001 January      9.11    4.23    5.66
##  2  2001 February     8.96    2.80    1.3 
##  3  2001 March       11.5     5.06    5.26
##  4  2001 April       14.8     7.25    5.11
##  5  2001 May         16.7     9.47    2.81
##  6  2001 June        18.8    11.8     3.43
##  7  2001 July        21.3    14.2     0.9 
##  8  2001 August      21.5    14.6     3.68
##  9  2001 September   18.6    12.2     2.03
## 10  2001 October     12.9     7.78    6.90
## #  with 218 more rows
…
Now read the data back in and make plots:

new_weather_edits <- read_csv(here::here("hw05","data", filename_edits))
new_weather2018 <- read_csv(here::here("hw05","data", filename2018))

When reading the data back in the factors are lost for our month variable. So we need to change month to a factor again. Other than that the data survived being saved to a file and read back in! So thats great because now I have a summarized dataset :)

(new_weather_edits1 <- new_weather_edits %>% 
  mutate(Month = factor(Month,
                        levels = c("January","February","March","April","May","June",
                                   "July","August","September","October","November","December"))))

## # A tibble: 228 x 5
##     Year Month     meanMax meanMin meanPcp
##    <dbl> <fct>       <dbl>   <dbl>   <dbl>
##  1  2001 January      9.11    4.23    5.66
##  2  2001 February     8.96    2.80    1.3 
##  3  2001 March       11.5     5.06    5.26
##  4  2001 April       14.8     7.25    5.11
##  5  2001 May         16.7     9.47    2.81
##  6  2001 June        18.8    11.8     3.43
##  7  2001 July        21.3    14.2     0.9 
##  8  2001 August      21.5    14.6     3.68
##  9  2001 September   18.6    12.2     2.03
## 10  2001 October     12.9     7.78    6.90
## #  with 218 more rows
…
